Screening and Cleaning Flanker Task
…
save(badsubs_tot, file = "Data/cache/acc_drop_flanker.RData")

badsubs_abba

## [1] 55  7 83 47 14 38

badsubs_cong #adds 62, wonder what the deal is here. Regardless, just stick with ABBA for now.

## [1] 55  7 83 47 14 62 38

summaries_abba <- summaries_abba %>% mutate(Incongruent = ifelse(grepl("A",ABBA), 0,1)) %>% left_join(summaries_con, by = c("Subject", "Incongruent")) %>% left_join(summaries_tot, by = "Subject") #%>% arrange("Subject_ACC")
summaries_abba %>% filter(Subject %in% badsubs_tot)

## # A tibble: 28 x 6
## # Groups:   Subject [7]
##    Subject ABBA  Subject_ACC_abba Incongruent Subject_ACC_con Subject_ACC
##      <dbl> <chr>            <dbl>       <dbl>           <dbl>       <dbl>
##  1       7 A1               0.744           0           0.975       0.566
##  2       7 A2               0.784           0           0.975       0.566
##  3       7 B1               0.308           1           0.111       0.566
##  4       7 B2               0.432           1           0.111       0.566
##  5      14 A1               0.825           0           0.988       0.648
##  6      14 A2               0.875           0           0.988       0.648
##  7      14 B1               0.45            1           0.304       0.648
##  8      14 B2               0.436           1           0.304       0.648
##  9      38 A1               0.875           0           0.975       0.744
## 10      38 A2               0.825           0           0.975       0.744
## #  with 18 more rows
…
cor(summaries_rt$amean, summaries_rt$hmean)

## [1] 0.9960905

#lol. okay so theyre pretty much the same thing. Esp once we have dealt with outliers.

Screen for unlikely RT means between subjects, separating incongruent and congruent trials. For example, if the congruent sample average is ~250ms and one subject has a mean ~750ms, is this plausible? If not, discuss and potentially drop.

summaries_rt <- summaries_rt %>% group_by(Incongruent, CongruentBlock) %>% mutate(g_mean = mean(hmean), g_sd = sd(hmean), g_meansd = g_mean + 3*g_sd)
summaries_rt

## # A tibble: 416 x 9
## # Groups:   Incongruent, CongruentBlock [4]
##    Subject Incongruent CongruentBlock amean    sd hmean g_mean  g_sd g_meansd
##      <dbl>       <dbl>          <dbl> <dbl> <dbl> <dbl>  <dbl> <dbl>    <dbl>
##  1       1           0              0  415.  65.1  406.   372.  44.9     506.
##  2       1           0              1  426.  62.6  418.   375.  44.3     508.
##  3       1           1              0  434.  69.0  424.   387.  45.8     524.
##  4       1           1              1  429.  52.2  424.   398.  48.3     543.
##  5       2           0              0  361.  59.1  352.   372.  44.9     506.
##  6       2           0              1  352.  62.5  341.   375.  44.3     508.
##  7       2           1              0  382.  66.1  370.   387.  45.8     524.
##  8       2           1              1  387.  78.4  371.   398.  48.3     543.
##  9       3           0              0  363.  37.5  359.   372.  44.9     506.
## 10       3           0              1  353.  56.6  345.   375.  44.3     508.
## #  with 406 more rows
…
#one subject seems to be way out there on the incongruent-incongruent condition. Might be helpful to drop this person.

summaries_rt %>% group_by(Subject) %>% mutate(sub_mean = mean(hmean)) %>% arrange(-hmean)

## # A tibble: 416 x 10
## # Groups:   Subject [104]
##    Subject Incongruent CongruentBlock amean    sd hmean g_mean  g_sd g_meansd
##      <dbl>       <dbl>          <dbl> <dbl> <dbl> <dbl>  <dbl> <dbl>    <dbl>
##  1      90           1              1  597.  62.2  589.   398.  48.3     543.
##  2     111           1              0  565.  38.7  562.   387.  45.8     524.
##  3      15           1              1  546.  71.8  537.   398.  48.3     543.
##  4     111           1              1  540.  58.2  534.   398.  48.3     543.
##  5      15           1              0  542.  73.0  533.   387.  45.8     524.
##  6     111           0              0  534.  48.4  529.   372.  44.9     506.
##  7     111           0              1  527.  66.8  518.   375.  44.3     508.
##  8      15           0              0  524.  71.3  515.   372.  44.9     506.
##  9      30           1              1  527.  82.8  513.   398.  48.3     543.
## 10      15           0              1  521.  80.5  508.   375.  44.3     508.
## #  with 406 more rows, and 1 more variable: sub_mean <dbl>
…
